…
```r
hearings.yearly = hearings %>%
  mutate(x = 1) %>%
  group_by(year, majortopic) %>%
  summarise(total = sum(x)) %>%
  mutate(cong.perc = total/sum(total)) %>%
  select(year, majortopic, cong.perc)

hearings.yearly
```

```
## Source: local data frame [1,384 x 3]
## Groups: year [69]
## 
##     year majortopic   cong.perc
##    <int>      <int>       <dbl>
## 1   1946          1 0.022193211
## 2   1946          2 0.007832898
## 3   1946          3 0.022193211
## 4   1946          4 0.039164491
## 5   1946          5 0.016971279
## 6   1946          6 0.009138381
## 7   1946          7 0.011749347
## 8   1946          8 0.028720627
## 9   1946          9 0.014360313
## 10  1946         10 0.054830287
## # ... with 1,374 more rows
```
…
```r
  select(year, majortopic, cong.perc)
```

The end result is `hearings.yearly`, a dataset that has exactly (but nothing more) what we needed:


```r
hearings.yearly
```

```
## Source: local data frame [1,384 x 3]
## Groups: year [69]
## 
##     year majortopic   cong.perc
##    <int>      <int>       <dbl>
## 1   1946          1 0.022193211
## 2   1946          2 0.007832898
## 3   1946          3 0.022193211
## 4   1946          4 0.039164491
## 5   1946          5 0.016971279
## 6   1946          6 0.009138381
## 7   1946          7 0.011749347
## 8   1946          8 0.028720627
## 9   1946          9 0.014360313
## 10  1946         10 0.054830287
## # ... with 1,374 more rows
```

Because we now have a dataset using the same structure as our "MIP" dataset, we can now merge the two (note that I am using `full_join` from the `tidyverse` package to complete the merge).


```r
cong.mip = full_join(hearings.yearly, mip, by=c('year','majortopic'))

cong.mip
```

```
## Source: local data frame [1,476 x 4]
## Groups: year [?]
## 
##     year majortopic   cong.perc mip.perc
##    <int>      <int>       <dbl>    <dbl>
## 1   1946          1 0.022193211       NA
## 2   1946          2 0.007832898       NA
## 3   1946          3 0.022193211       NA
## 4   1946          4 0.039164491       NA
## 5   1946          5 0.016971279       NA
## 6   1946          6 0.009138381       NA
## 7   1946          7 0.011749347       NA
## 8   1946          8 0.028720627       NA
## 9   1946          9 0.014360313       NA
## 10  1946         10 0.054830287       NA
## # ... with 1,466 more rows
```
…
