…
For those purposes, I'm going to use `anti_join` from the `dplyr` package, which returns only those rows in *x* (the first dataframe) that do not have matching values in *y* (the second dataframe).

We'll perform the join using state (*region* in both datasets) and county (*subregion* in county map data, *county_name* in election data).


```r
anti_join(counties, elect.data, by=c("region", "subregion")) %>%
  # collapse by region-county to see how many, if any, didn't merge
  mutate(x=1) %>%
  group_by(region, subregion) %>%
  summarise(sum(x))
```

```
## Source: local data frame [3,074 x 3]
## Groups: region [?]
## 
##     region subregion `sum(x)`
##      <chr>     <chr>    <dbl>
## 1  alabama   autauga       51
## 2  alabama   baldwin      116
## 3  alabama   barbour       51
## 4  alabama      bibb       40
## 5  alabama    blount       69
## 6  alabama   bullock       44
## 7  alabama    butler       18
## 8  alabama   calhoun       73
## 9  alabama  chambers       26
## 10 alabama  cherokee       45
## # ... with 3,064 more rows
```
…
```r
elect.data <- elect.data %>%
  # we've aleady made subregion lowercase
  mutate(subregion = sub(" county| parish", "", subregion))

# try the antijoin again, and check our count of leftover counties
anti_join(counties, elect.data, by=c("region","subregion")) %>%
  mutate(x=1) %>%
  group_by(region, subregion) %>%
  summarise(sum(x))
```

```
## Source: local data frame [51 x 3]
## Groups: region [?]
## 
##                  region  subregion `sum(x)`
##                   <chr>      <chr>    <dbl>
## 1               alabama    de kalb       41
## 2               alabama   st clair       94
## 3              arkansas st francis       14
## 4  district of columbia washington       10
## 5               florida    de soto       11
## 6               florida   st johns       40
## 7               florida   st lucie       12
## 8               georgia    de kalb       23
## 9              illinois    de kalb       13
## 10             illinois    du page       10
## # ... with 41 more rows
```

Progress! We only have 51 orphaned counties now. 

At this point, it looks like we might have punctuation issues in the county names, as the county data omits punctuation while the election data does not.


```r
elect.data %>%
  filter(grepl("\\.|'", subregion)) %>%
  select(region, subregion)
```

```
## # A tibble: 30 × 2
##       region   subregion
##        <chr>       <chr>
## 1    alabama   st. clair
## 2   arkansas st. francis
## 3    florida   st. johns
## 4    florida   st. lucie
## 5       iowa     o'brien
## 6   illinois   st. clair
## 7    indiana  st. joseph
## 8  louisiana st. bernard
## 9  louisiana st. charles
## 10 louisiana  st. helena
## # ... with 20 more rows
```
…
```r
elect.data <- elect.data %>%
  # use gsub to remove all instances of punctuation, making sure to
  # "escape" the period (\\.), which is a special character
  mutate(subregion = gsub("\\.|'", "", subregion))

# check the antijoin
anti_join(counties, elect.data, by=c("region","subregion")) %>%
  mutate(x = 1) %>%
  group_by(region, subregion) %>%
  summarise(sum(x))
```

```
## Source: local data frame [21 x 3]
## Groups: region [?]
## 
##                  region  subregion `sum(x)`
##                   <chr>      <chr>    <dbl>
## 1               alabama    de kalb       41
## 2  district of columbia washington       10
## 3               florida    de soto       11
## 4               georgia    de kalb       23
## 5              illinois    de kalb       13
## 6              illinois    du page       10
## 7              illinois   la salle       13
## 8               indiana    de kalb        6
## 9               indiana   la porte       22
## 10          mississippi    de soto       24
## # ... with 11 more rows
```
…
