…
You might notice that I "piped" the data through `as_data_frame` to evaluate each of these datasets; this command turns these datasets into "tibbles" (another *tidyverse* term) that are more convenient than *R's* traditional `data.frame` structure. 

This is borne out by investigating the `mip` dataset; because it's a `data_frame`, the default output when viewed interactively is to show the first 10 observations:


```r
mip
```

```
## # A tibble: 1,470 × 5
##       id  year  percent majortopic Congress
##    <int> <int>    <dbl>      <int>    <int>
## 1      1  1946       NA          1       79
## 2      2  1947 0.347958          1       80
## 3      3  1948 0.221154          1       80
## 4      4  1949 0.288126          1       81
## 5      5  1950 0.233645          1       81
## 6      6  1951 0.228571          1       82
## 7      7  1952 0.214286          1       82
## 8      8  1953       NA          1       83
## 9      9  1954 0.333333          1       83
## 10    10  1955       NA          1       84
## # ... with 1,460 more rows
```
…
```r
mip = mip %>%
  select(year, majortopic, mip.perc = percent)
```

Things get a bit more complicated when we look at the Congressional hearings dataset, as this dataset is structured such that each Congressional hearing occupies a row, which means that if we want to compare Congressional hearings by year to "MIP" responses by year, we'll have to do some data munging.


```r
hearings
```

```
## # A tibble: 96,283 × 33
##       id     source CISYear Unpublished Chamber filter_House filter_Senate
##    <int>      <chr>   <chr>       <int>   <int>        <int>         <int>
## 1      1  93-H161-1    1993           0       1            1             0
## 2      2  93-H161-2    1993           0       1            1             0
## 3      3  93-H161-3    1993           0       1            1             0
## 4      4  93-H161-4    1993           0       1            1             0
## 5      5  93-H161-5    1993           0       1            1             0
## 6      6  93-H161-6    1993           0       1            1             0
## 7      7  93-H161-7    1993           0       1            1             0
## 8      8  93-H161-8    1993           0       1            1             0
## 9      9  93-H161-9    1993           0       1            1             0
## 10    10 93-H161-10    1993           0       1            1             0
## # ... with 96,273 more rows, and 26 more variables: filter_Joint <int>,
## #   CISCommittee <chr>, Sequence <chr>, Month <int>, Congress <int>,
## #   year <int>, FiscalYear <int>, Days <int>, Sessions <int>,
## #   Committee1 <int>, Subcommittee1 <int>, Committee2 <int>,
## #   Subcommittee2 <int>, filter_Referral <int>, filter_Approp <int>,
## #   filter_Agency <int>, filter_Program <int>, filter_Admin <int>,
## #   description <chr>, USMajorTopic <int>, USsubTopicCode <int>,
## #   majortopic <int>, subtopic <int>, ReferralBills <chr>,
## #   StartDate <chr>, AdditionalDates <chr>
```
…
```r
hearings.yearly = hearings %>%
  mutate(x = 1) %>%
  group_by(year, majortopic) %>%
  summarise(total = sum(x)) %>%
  mutate(cong.perc = total/sum(total)) %>%
  select(year, majortopic, cong.perc)

hearings.yearly
```

```
## Source: local data frame [1,384 x 3]
## Groups: year [69]
## 
##     year majortopic   cong.perc
##    <int>      <int>       <dbl>
## 1   1946          1 0.022193211
## 2   1946          2 0.007832898
## 3   1946          3 0.022193211
## 4   1946          4 0.039164491
## 5   1946          5 0.016971279
## 6   1946          6 0.009138381
## 7   1946          7 0.011749347
## 8   1946          8 0.028720627
## 9   1946          9 0.014360313
## 10  1946         10 0.054830287
## # ... with 1,374 more rows
```
…
```r
  select(year, majortopic, cong.perc)
```

The end result is `hearings.yearly`, a dataset that has exactly (but nothing more) what we needed:


```r
hearings.yearly
```

```
## Source: local data frame [1,384 x 3]
## Groups: year [69]
## 
##     year majortopic   cong.perc
##    <int>      <int>       <dbl>
## 1   1946          1 0.022193211
## 2   1946          2 0.007832898
## 3   1946          3 0.022193211
## 4   1946          4 0.039164491
## 5   1946          5 0.016971279
## 6   1946          6 0.009138381
## 7   1946          7 0.011749347
## 8   1946          8 0.028720627
## 9   1946          9 0.014360313
## 10  1946         10 0.054830287
## # ... with 1,374 more rows
```

Because we now have a dataset using the same structure as our "MIP" dataset, we can now merge the two (note that I am using `full_join` from the `tidyverse` package to complete the merge).


```r
cong.mip = full_join(hearings.yearly, mip, by=c('year','majortopic'))

cong.mip
```

```
## Source: local data frame [1,476 x 4]
## Groups: year [?]
## 
##     year majortopic   cong.perc mip.perc
##    <int>      <int>       <dbl>    <dbl>
## 1   1946          1 0.022193211       NA
## 2   1946          2 0.007832898       NA
## 3   1946          3 0.022193211       NA
## 4   1946          4 0.039164491       NA
## 5   1946          5 0.016971279       NA
## 6   1946          6 0.009138381       NA
## 7   1946          7 0.011749347       NA
## 8   1946          8 0.028720627       NA
## 9   1946          9 0.014360313       NA
## 10  1946         10 0.054830287       NA
## # ... with 1,466 more rows
```
…
